[
  {
    "image": "https://media.goopps.com/upload/module/b_event_type/372x247_event-type-1581469983-2.jpeg",
    "title": "Title 1",
    "description" : "Lorem Ipsum is simply dummy text of the printing and typesetting industry",
    "date" : "10 Jan 2021",
    "time" : "08:00",
    "latitude" : -5.1374333945611035,
    "longitude": 119.45065068230714
  },
  {
    "image": "https://media.goopps.com/upload/module/b_event_type/372x247_event-type-1581469983-2.jpeg",
    "title": "Title 2",
    "description" : "Lorem Ipsum has been the industry's standard dummy text ever since",
    "date" : "13 Jan 2021",
    "time" : "09:00",
    "latitude" : -5.1379422708078355,
    "longitude": 119.45225159300269
  },
  {
    "image": "https://media.goopps.com/upload/module/b_event_type/372x247_event-type-1581469983-2.jpeg",
    "title": "Title 3",
    "description" : "when an unknown printer took a galley of type and scrambled",
    "date" : "22 Jan 2021",
    "time" : "09:00",
    "latitude" : -5.1442862272249705,
    "longitude": 119.45337563668252
  },
  {
    "image": "https://media.goopps.com/upload/module/b_event_type/372x247_event-type-1581469983-2.jpeg",
    "title": "Title 4",
    "description" : "when an unknown printer took a galley of type and scrambled",
    "date" : "19 Jan 2021",
    "time" : "09:00",
    "latitude" : -5.139197497145496,
    "longitude": 119.45112754932283
  }
]